{
	"data": [
		{
			"0": {"_": "Geſchichte des Agathon<div hidden=''>█Geschichte des Agathon</div>", "s": "geschichte des agathon"},
			"1": "<a class='key' href='https://d-nb.info/gnd/4137090-9'>4137090-9</a>",
			"DT_RowId": "1"
		},
		{
			"0": {"_": "Wilhelm Meiſters Lehrjahre<div hidden=''>█Wilhelm Meisters Lehrjahre</div>", "s": "wilhelm meisters lehrjahre"},
			"1": "<a class='key' href='https://d-nb.info/gnd/4099206-8'>4099206-8</a>",
			"DT_RowId": "2"
		}
	]
}